&MIMIC
    LONG-RANGE COUPLING
    FRAGMENT SORTING ATOM-WISE UPDATE
        50
    CUTOFF DISTANCE
        31.0
    MULTIPOLE ORDER
        7
    OVERLAPS
        40
        2 84 1 1
        2 87 1 2
        2 89 1 3
        2 93 1 4
        2 257 1 5
        2 260 1 6
        2 263 1 7
        2 266 1 8
        2 288 1 9
        2 291 1 10
        2 294 1 11
        2 297 1 12
        2 85 1 13
        2 86 1 14
        2 90 1 15
        2 92 1 16
        2 94 1 17
        2 258 1 18
        2 259 1 19
        2 262 1 20
        2 264 1 21
        2 267 1 22
        2 289 1 23
        2 290 1 24
        2 293 1 25
        2 295 1 26
        2 298 1 27
        2 853 1 28
        2 855 1 29
        2 88 1 30
        2 91 1 31
        2 261 1 32
        2 265 1 33
        2 292 1 34
        2 296 1 35
        2 854 1 36
        2 852 1 37
        2 82 1 38
        2 255 1 39
        2 286 1 40
    PATHS
        1
*****UPDATE YOUR FILE PATH HERE*****
    BOX
        121.31399213215073 120.37744386478619 121.22857651131764
&END

&CPMD
    MIMIC
    MOLECULAR DYNAMICS BO
    NEW CONSTRAINTS
    ISOLATED MOLECULE
    RESTART COORDINATES VELOCITIES WAVEFUNCTION LATEST
    MEMORY BIG
    EXTRAPOLATE WFN
        5
    REAL SPACE WFN KEEP
    NOSE IONS
        300 3000
    TIMESTEP
        10.0
    MAXSTEP
        100
    TRAJECTORY SAMPLE
        5
    STORE
        5
    RESTFILE
        1
&END

&SYSTEM
    POISSON SOLVER TUCKERMAN
    SYMMETRY
        0
    CUTOFF
        85.
    CELL
        28.3 0.9 1.1 0.0 0.0 0.0
    CHARGE
        2
&END

&DFT
    XC_DRIVER
    FUNCTIONAL GGA_XC_BLYP
&END

&ATOMS
*C_MT_BLYP.psp KLEINMAN-BYLANDER
    LMAX=P
    12
    55.236694622811    60.017701718114    58.638201647138
    57.390982404885    60.698003122980    60.376749681793
    60.716900384226    62.474345680128    61.831838797755
    57.825619413549    59.715345538174    62.738907337576
    49.378543636471    67.406530865401    53.309173975693
    51.910776643470    67.689989784095    54.669776785424
    54.594187740438    69.182873422549    57.428776927377
    53.819400029342    66.045928055671    54.858749397886
    59.431886619480    59.431886619480    48.376988790420
    59.734242799421    61.510585356569    50.304509437538
    61.283818221614    64.817606074664    52.213132823410
    58.430331773429    61.888530581494    52.458797219611

*H_MT_BLYP.psp KLEINMAN-BYLANDER
    LMAX=S
    17
    54.707571307916    61.775147014016    57.731133107317
    56.143763162632    59.072838655802    57.050831702452
    62.360962112650    63.664873138642    62.077503193957
    60.773592167965    60.357852420547    65.346729389559
    56.540605648803    58.505920818414    63.759359444873
    49.567516248934    67.519914432879    51.249372499851
    48.225810700450    68.975003548841    53.989475380558
    50.928119058665    70.675757061004    57.145318008683
    55.387872712781    70.392298142310    58.883866043339
    53.743810984357    64.307380021015    53.781605506849
    59.488578403219    57.636646801086    49.378543636471
    61.151537392890    59.431886619480    47.224255854398
    62.908982688792    63.645975877396    48.887214844069
    62.323167590158    66.537256848073    52.496591742104
    56.937448134974    60.735797645472    53.252482191954
    62.096400455203    67.633298000356    60.036598979361
    61.567277140308    69.258462467534    57.863413936041

*N_MT_BLYP.psp KLEINMAN-BYLANDER
    LMAX=P
    6
    59.016146872063    62.682215553837    59.923215411883
    59.923215411883    60.886975735442    63.721564922381
    52.307619129641    69.541921386228    56.446119342572
    55.576845325244    66.971893856737    56.578400171296
    61.680660707785    63.230236129978    50.285612176292
    59.601961970697    63.816051228612    53.762708245603

*O_MT_BLYP.psp KLEINMAN-BYLANDER
    LMAX=P
    1
    61.472790834076    67.519914432879    58.354742728444

*Zn_MT_BLYP_SEMI.psp GAUSS-HERMITE=20
    LMAX=D LOC=S
    1
    58.694893430876    65.138859515850    57.183112531176

*C_GIA_DUM_AN_BLYP.oecp KLEINMAN-BYLANDER
    LMAX=P
    3
    53.082406840738    58.335845467198    59.526372925712
    47.791173691786    65.063270470865    53.951680858066
    57.164215269930    59.450783880727    46.751824323242

&END
